digraph "Dependency graph" {
	A -> C [label=b]
	B -> A [label=a]
	B -> J [label=n]
	C -> B [label=c]
	C -> E [label=e]
	D -> C [label=d]
	D -> F [label=g]
	E -> D [label=f]
	E -> G [label=h]
	E -> J [label=o]
	F -> G [label=i]
	G -> H [label=k]
	G -> I [label=l]
	H -> F [label=j]
	I -> H [label=m]
	I -> L [label=w]
	J -> M [label=p]
	J -> O [label=q]
	K -> L [label=x]
	L -> K [label=y]
	L -> P [label=z]
	M -> N [label=r]
	N -> O [label=t]
	N -> P [label=u]
	O -> M [label=s]
	O -> P [label=v]
	_P [shape=point style=invis]
	P -> _P [label=obj]
}
