[
    [
        "A",
        "B",
        [
            "a"
        ]
    ],
    [
        "A",
        "C",
        [
            "a"
        ]
    ],
    [
        "B",
        "D",
        [
            "b"
        ]
    ],
    [
        "C",
        "D",
        [
            "c"
        ]
    ]
]
