{
    "name": "KMeans_options",
    "required": ["n_clusters"],
    "properties": {
        "n_clusters": {
            "type": "integer"
        }
    },
    "additionalProperties": false,
    "$schema": "http://json-schema.org/draft-04/schema",
    "type": "object"
}
