{
    "name": "OptPostProcessor",
    "required": [],
    "properties": {
        "save": {
            "type": "boolean"
        },
        "show": {
            "type": "boolean"
        },
        "file_path": {
            "type": ["string", "null"]
        },
        "file_extension": {
            "type": ["string", "null"]
        },
        "file_name": {
            "type": ["string", "null"]
        },
        "directory_path": {
            "type": ["string", "null"]
        },
        "fig_size": {"anyOf":[
            {"type": "null"},
            {
                "type": "array",
                "minItems": 2,
                "maxItems": 2,
                "items": {
                    "type": "number"
                }
            }
        ]}
    },
    "additionalProperties": false,
    "$schema": "http://json-schema.org/draft-04/schema",
    "type": "object"
}
