{
    "name": "Robustness_options",
    "required": [],
    "properties": {
        "stddev": {
            "type": "number",
            "minimum":0.0,
            "maximum":1.0
        }
    },
    "additionalProperties": false,
    "$schema": "http://json-schema.org/draft-04/schema",
    "type": "object"
}
